{
  "endpointFQDN": "api.tailoredlabs.org",
	"httpPort":     8080,
  "guacHost":     "localhost",
  "guacPort":     4822,
  "cryptKey":     "3zTvzr3p67VC61jmV54rIYu1545x4TlY",
  "cryptCypher":  "AES-256-CBC",
	"bodyLimit":    "100kb",
	"corsHeaders":  ["Link"]
}
